…
The package also supports a number of advanced features:

Match to household- and person-level targets simultaneously

View and restrict the distribution of resulting weights

Control by geography

Handle target agreement and importance

Finally, the resulting weight table can be used to easily create a synthetic
population:

synthesize(result$weight_tbl)
#> # A tibble: 100 x 4
#>    new_id    id  size autos
#>     <int> <int> <dbl> <dbl>
#>  1      1     1     1     0
#>  2      2     4     1     1
#>  3      3     1     1     0
#>  4      4     2     2     2
#>  5      5     4     1     1
#>  6      6     4     1     1
#>  7      7     2     2     2
#>  8      8     2     2     2
#>  9      9     4     1     1
#> 10     10     4     1     1
#> # ... with 90 more rows
